<?xml version="1.0" standalone="no"?>
<!DOCTYPE svg PUBLIC "-//W3C//DTD SVG 20010904//EN"
 "http://www.w3.org/TR/2001/REC-SVG-20010904/DTD/svg10.dtd">
<svg version="1.0" xmlns="http://www.w3.org/2000/svg"
 width="1872.000000pt" height="540.000000pt" viewBox="0 0 1872.000000 540.000000"
 preserveAspectRatio="xMidYMid meet">
<metadata>
Created by potrace 1.13, written by Peter Selinger 2001-2015
</metadata>
<g transform="translate(0.000000,540.000000) scale(0.100000,-0.100000)" fill="#497274" stroke="none">
<path d="M1922 4588 c-270 -665 -1032 -2559 -1032 -2568 0 -7 144 -10 449 -10
l448 0 150 378 c83 207 267 671 409 1031 178 450 260 644 262 625 1 -16 -27
-476 -62 -1023 -36 -547 -63 -999 -60 -1003 3 -4 186 -8 408 -8 l402 0 734
1030 c403 566 735 1028 737 1027 1 -2 -170 -460 -382 -1018 -212 -558 -385
-1020 -385 -1026 0 -10 96 -13 448 -13 l449 0 483 1298 c266 713 496 1332 511
1375 l29 77 -710 0 -709 0 -593 -830 c-326 -456 -593 -828 -593 -827 -1 1 20
351 46 777 26 426 48 799 48 828 l1 52 -709 0 -709 0 -70 -172z"/>
<path d="M6511 4738 c-70 -185 -985 -2689 -989 -2706 l-4 -22 552 2 552 3 489
1365 c269 751 489 1368 489 1373 0 4 -243 7 -540 7 l-540 0 -9 -22z"/>
<path d="M8207 4718 c-39 -102 -947 -2692 -947 -2700 0 -4 247 -8 549 -8 513
0 549 1 556 18 3 9 54 157 112 327 58 171 113 317 122 326 19 20 697 449 709
449 4 0 18 -33 31 -72 13 -40 95 -292 183 -560 l159 -488 674 0 c371 0 676 3
678 8 2 4 -171 387 -385 852 -213 464 -387 849 -384 855 2 5 362 240 800 520
l796 510 -716 3 -716 2 -737 -514 c-405 -283 -737 -513 -738 -512 -1 1 74 222
166 491 93 270 171 500 175 513 l7 22 -539 0 -539 0 -16 -42z"/>
<path d="M11840 3403 c-238 -747 -435 -1366 -438 -1375 -4 -17 72 -18 1496
-18 923 0 1503 4 1507 9 3 6 44 139 90 298 47 158 88 296 91 305 5 17 -46 18
-939 20 l-945 3 82 265 82 265 850 3 850 2 78 268 c44 147 81 273 84 279 3 10
-172 13 -840 15 l-844 3 66 212 65 213 909 2 910 3 53 180 c30 99 69 231 87
293 l34 112 -1447 0 -1448 0 -433 -1357z"/>
<path d="M15397 3397 c-218 -750 -397 -1368 -397 -1375 0 -9 321 -12 1410 -12
l1409 0 11 43 c19 72 161 601 166 620 5 16 -40 17 -851 17 l-856 0 7 23 c20
62 574 2030 574 2038 0 5 -214 9 -538 9 l-538 0 -397 -1363z"/>
<path d="M4653 1490 c-80 -16 -137 -62 -154 -123 -18 -66 18 -115 142 -192 42
-26 53 -46 45 -78 -13 -53 -100 -72 -186 -42 -23 8 -44 15 -45 15 -8 0 -26
-71 -21 -79 11 -17 108 -34 171 -28 88 7 143 38 174 100 42 86 5 155 -117 219
-66 35 -79 70 -38 105 30 25 102 32 151 13 24 -9 27 -7 41 25 18 44 13 53 -34
60 -74 12 -88 13 -129 5z"/>
<path d="M13423 1490 c-85 -17 -145 -68 -157 -133 -12 -63 25 -114 120 -166
61 -33 84 -69 65 -104 -25 -47 -105 -61 -186 -32 -21 8 -40 13 -42 12 -1 -2
-9 -20 -18 -40 l-15 -36 57 -17 c163 -47 316 27 316 153 0 58 -23 88 -111 141
-87 52 -101 82 -58 119 30 25 102 32 150 13 24 -9 27 -6 41 26 18 44 14 52
-33 59 -74 12 -88 13 -129 5z"/>
<path d="M14773 1490 c-107 -22 -173 -98 -156 -181 6 -33 64 -89 122 -119 145
-74 37 -192 -124 -135 -21 8 -40 13 -42 12 -1 -2 -9 -20 -18 -40 l-15 -36 57
-17 c119 -35 260 2 300 79 24 46 22 109 -3 144 -11 15 -53 47 -92 71 -87 52
-101 82 -58 119 30 25 102 32 151 13 24 -9 27 -7 41 25 18 44 13 53 -34 60
-74 12 -88 13 -129 5z"/>
<path d="M17683 1490 c-165 -33 -215 -187 -87 -267 25 -16 59 -37 77 -48 17
-11 36 -33 42 -49 8 -25 6 -31 -23 -57 -26 -24 -41 -29 -80 -29 -26 1 -65 7
-87 15 -21 8 -40 13 -41 12 -5 -7 -34 -67 -34 -71 0 -16 119 -38 180 -34 119
9 191 70 192 164 1 57 -21 89 -93 130 -101 59 -121 93 -77 134 24 22 106 28
152 10 24 -9 27 -6 41 26 18 44 14 52 -33 59 -74 12 -88 13 -129 5z"/>
<path d="M786 1473 c-26 -87 -67 -325 -64 -370 8 -96 66 -143 174 -143 108 0
171 34 216 116 23 43 98 347 98 398 0 12 -11 16 -48 16 l-49 0 -32 -157 c-39
-193 -54 -235 -92 -268 -66 -55 -169 -20 -169 57 0 18 16 107 35 198 19 91 35
166 35 168 0 1 -22 2 -49 2 -39 0 -51 -4 -55 -17z"/>
<path d="M1570 1482 c0 -5 -22 -115 -50 -246 -27 -131 -50 -244 -50 -252 0
-18 86 -20 92 -1 3 6 20 92 39 189 19 98 37 178 40 178 3 0 13 -26 23 -57 10
-32 43 -118 73 -190 l56 -133 53 0 c30 0 54 2 54 4 0 3 23 113 50 244 28 132
50 247 50 256 0 12 -10 16 -44 16 l-44 0 -17 -77 c-10 -43 -27 -131 -39 -196
l-22 -117 -12 46 c-7 26 -40 114 -74 196 l-60 148 -59 0 c-33 0 -59 -4 -59 -8z"/>
<path d="M2385 1483 c-19 -3 -26 -30 -69 -236 -26 -128 -50 -242 -53 -254 -4
-20 0 -22 64 -29 95 -10 233 9 299 41 166 81 219 323 95 428 -47 39 -120 57
-225 56 -50 -1 -100 -4 -111 -6z m236 -96 c44 -29 59 -60 59 -123 0 -74 -41
-150 -103 -188 -38 -23 -62 -30 -124 -34 l-76 -5 6 34 c4 19 21 103 38 187
l32 152 67 0 c53 0 74 -5 101 -23z"/>
<path d="M3164 1455 c-3 -19 -27 -135 -53 -257 l-47 -223 165 -3 c90 -1 165
-1 166 0 1 2 5 20 9 41 l7 37 -114 0 -114 0 15 75 15 75 102 0 c98 0 103 1
109 23 15 56 14 57 -94 57 -99 0 -100 0 -95 23 3 12 9 40 13 62 l8 40 112 3
c98 2 112 5 112 20 0 9 3 27 6 40 l6 22 -160 0 -161 0 -7 -35z"/>
<path d="M3854 1484 c-18 -4 -26 -32 -72 -252 -29 -136 -52 -251 -52 -255 0
-4 22 -7 49 -7 l49 0 11 53 c36 170 30 157 71 157 60 0 80 -24 90 -105 5 -39
9 -78 10 -87 0 -15 9 -18 53 -18 l53 0 -12 96 c-8 67 -19 105 -33 124 l-20 28
22 6 c41 10 89 70 94 118 11 99 -47 142 -197 144 -52 1 -104 0 -116 -2z m159
-75 c52 -14 67 -47 44 -95 -20 -41 -66 -64 -127 -64 -46 0 -46 0 -24 90 19 83
30 91 107 69z"/>
<path d="M5205 1478 c-6 -16 -105 -487 -105 -499 0 -5 72 -9 164 -9 161 0 164
0 170 23 15 57 15 57 -104 57 -82 0 -110 3 -110 13 1 6 6 39 13 72 l13 60 102
3 103 3 6 29 c3 16 6 33 7 37 0 5 -44 10 -100 13 l-100 5 13 63 14 62 108 0
109 0 6 31 c3 17 6 35 6 40 0 15 -310 11 -315 -3z"/>
<path d="M5861 1234 c-78 -140 -141 -257 -141 -260 0 -2 24 -4 53 -4 l52 0 36
68 35 67 91 3 90 3 7 -71 7 -70 55 0 c51 0 54 1 50 23 -3 12 -20 129 -37 260
l-32 237 -63 0 -62 0 -141 -256z"/>
<path d="M7363 1438 c4 -29 9 -129 12 -223 3 -93 8 -187 11 -207 l6 -38 54 0
54 0 68 138 c37 75 77 160 89 187 l21 50 1 -66 c1 -36 4 -121 8 -187 l6 -122
53 0 54 0 130 261 131 260 -56 -3 -56 -3 -51 -110 c-28 -60 -68 -150 -89 -200
l-38 -90 -1 203 0 202 -55 0 -56 0 -67 -142 c-38 -79 -79 -170 -93 -202 l-24
-59 -5 199 -5 199 -54 3 -53 3 5 -53z"/>
<path d="M8370 1318 c-52 -95 -117 -212 -143 -260 l-48 -88 55 0 56 0 35 70
35 70 89 0 88 0 7 -37 c3 -21 6 -53 6 -70 l0 -33 55 0 c30 0 55 3 55 8 0 4
-16 119 -35 257 -19 137 -35 251 -35 252 0 2 -28 3 -63 3 l-62 0 -95 -172z"/>
<path d="M9101 1481 c-23 -6 -28 -20 -72 -229 -26 -123 -49 -236 -53 -252 l-5
-30 49 0 c48 0 49 1 59 38 6 20 15 67 22 105 l12 67 42 0 c60 0 77 -23 90
-123 l10 -82 53 -3 52 -3 -6 48 c-13 108 -25 159 -43 177 -19 18 -18 19 22 40
59 31 95 101 78 155 -13 45 -37 68 -88 87 -39 14 -180 17 -222 5z m164 -75
c95 -40 26 -156 -93 -156 -37 0 -43 3 -38 18 2 9 10 44 16 77 7 33 17 63 24
67 18 12 54 9 91 -6z"/>
<path d="M9790 1485 c0 -4 -82 -396 -100 -477 l-8 -38 52 0 52 0 13 63 c7 34
17 83 23 110 l10 47 98 0 c93 0 98 1 104 23 15 56 14 57 -89 57 -106 0 -101
-5 -81 80 l12 55 107 3 c95 2 106 5 111 22 3 11 9 29 12 40 5 19 1 20 -155 20
-89 0 -161 -2 -161 -5z"/>
<path d="M10391 1236 c-78 -141 -141 -258 -141 -261 0 -3 24 -5 53 -5 l52 0
35 68 35 67 93 3 92 3 0 -33 c0 -18 3 -50 6 -70 l7 -38 52 0 53 0 -5 38 c-3
20 -19 136 -37 257 l-31 220 -61 3 -62 3 -141 -255z"/>
<path d="M11164 1483 c-19 -4 -26 -27 -68 -226 -25 -122 -49 -237 -52 -254
l-6 -33 49 0 50 0 11 53 c7 28 17 76 23 105 11 51 11 52 48 52 70 0 82 -18 96
-152 l6 -58 53 0 52 0 -12 97 c-9 68 -19 105 -34 125 -15 21 -17 28 -7 28 8 0
34 17 57 38 37 33 43 44 47 88 5 46 2 54 -26 86 -21 24 -46 39 -75 47 -43 10
-167 13 -212 4z m159 -74 c49 -13 63 -45 42 -95 -17 -40 -63 -64 -125 -64 -45
0 -45 -1 -26 89 18 83 32 92 109 70z"/>
<path d="M11855 1478 c-4 -13 -105 -495 -105 -504 0 -2 74 -4 164 -4 177 0
176 0 176 56 0 24 0 24 -110 24 -119 0 -117 -2 -101 60 5 19 12 47 15 63 l6
27 100 0 c54 0 101 3 103 8 3 4 7 21 8 37 l4 30 -97 3 c-109 3 -105 -1 -86 81
l11 51 108 0 c102 0 107 1 113 23 16 59 20 57 -149 57 -116 0 -157 -3 -160
-12z"/>
<path d="M13910 1486 c0 -2 25 -72 55 -155 l55 -152 -20 -91 c-11 -51 -20 -98
-20 -105 0 -9 16 -13 50 -13 28 0 50 2 50 4 0 2 9 49 21 105 l21 102 119 148
c65 81 119 151 119 155 0 4 -26 6 -57 4 l-58 -3 -75 -107 c-41 -59 -78 -109
-81 -112 -3 -3 -20 46 -38 109 l-33 115 -54 0 c-30 0 -54 -2 -54 -4z"/>
<path d="M15265 1468 c-14 -65 -16 -63 65 -68 l76 -5 -43 -200 c-23 -110 -42
-206 -43 -212 0 -9 16 -13 49 -13 42 0 50 3 54 23 4 12 22 101 42 197 20 96
38 183 41 193 5 14 17 17 80 17 71 0 75 1 84 26 6 14 10 34 10 45 0 18 -9 19
-205 19 -204 0 -205 0 -210 -22z"/>
<path d="M15990 1482 c0 -5 -22 -115 -50 -246 -27 -131 -50 -244 -50 -252 0
-11 29 -14 164 -14 l164 0 6 31 c3 17 6 35 6 40 0 5 -51 9 -114 9 l-113 0 16
73 17 72 101 3 c95 2 101 4 107 25 15 56 14 57 -95 57 -91 0 -100 2 -95 18 3
9 8 31 11 47 15 70 6 65 126 65 97 0 109 2 109 18 0 9 3 27 6 40 l6 22 -161 0
c-88 0 -161 -4 -161 -8z"/>
<path d="M16671 1458 c-24 -76 -131 -465 -131 -476 0 -8 17 -12 45 -12 51 0
38 -30 109 249 l42 164 12 -119 c7 -65 17 -159 23 -207 l12 -88 40 3 c38 3 41
5 95 98 30 52 81 145 114 205 32 61 56 99 53 85 -11 -54 -35 -199 -45 -275 -6
-44 -13 -88 -16 -97 -5 -16 2 -18 45 -18 28 0 51 1 52 3 7 30 73 509 70 513
-2 2 -32 4 -67 4 l-62 0 -85 -152 c-47 -84 -93 -170 -103 -191 l-18 -38 -18
158 c-9 87 -20 173 -23 191 l-6 32 -64 0 c-63 0 -64 0 -74 -32z"/>
</g>
</svg>
