<?xml version="1.0" standalone="no"?>
<!DOCTYPE svg PUBLIC "-//W3C//DTD SVG 20010904//EN"
 "http://www.w3.org/TR/2001/REC-SVG-20010904/DTD/svg10.dtd">
<svg version="1.0" xmlns="http://www.w3.org/2000/svg"
 width="3074.000000pt" height="1317.000000pt" viewBox="0 0 3074.000000 1317.000000"
 preserveAspectRatio="xMidYMid meet">
<metadata>
Created by potrace 1.13, written by Peter Selinger 2001-2015
</metadata>
<g transform="translate(0.000000,1317.000000) scale(0.100000,-0.100000)"
fill="" stroke="none">
<path fill="#000000" d="M0 6585 l0 -6585 15370 0 15370 0 0 6585 0 6585 -15370 0 -15370 0 0
-6585z m7332 2266 c3 -3 24 -69 46 -146 22 -77 84 -291 137 -475 210 -728 334
-1158 486 -1690 87 -305 167 -566 177 -580 25 -33 74 -38 101 -11 11 11 34 66
51 123 74 238 193 630 548 1803 72 237 154 507 182 600 29 94 64 212 80 263
15 51 30 95 33 99 8 7 1678 4 1690 -4 6 -4 7 -686 3 -1852 -7 -1878 -12 -2457
-23 -2474 -7 -12 -1103 -2 -1114 10 -4 5 -3 321 2 703 5 382 13 997 18 1365 5
369 5 680 0 693 -21 55 -101 53 -124 -2 -13 -30 -193 -659 -501 -1746 -63
-223 -132 -466 -154 -540 -21 -74 -60 -209 -86 -300 -25 -91 -52 -168 -58
-173 -14 -9 -1200 -7 -1215 3 -12 7 -19 30 -106 360 -31 118 -70 262 -85 320
-35 127 -125 465 -295 1105 -237 894 -263 987 -278 1003 -20 19 -75 18 -96 -3
-15 -14 -16 -145 -16 -1398 l0 -1382 -570 0 -570 0 0 380 c0 354 7 1408 21
3195 3 410 8 751 10 759 4 11 138 12 852 6 466 -4 850 -10 854 -14z m5830 -33
c0 -7 0 -980 -2 -2163 -2 -1579 -5 -2152 -14 -2157 -19 -12 -1210 3 -1219 16
-4 6 -5 178 -3 381 3 204 5 1172 5 2153 l1 1782 615 0 c485 0 615 -3 617 -12z
m2112 -14 c14 -14 16 -96 16 -755 0 -726 0 -739 20 -759 11 -11 33 -20 51 -20
32 0 16 -14 399 355 74 72 200 193 280 270 80 77 213 205 295 285 83 80 206
199 275 265 69 66 182 175 251 243 l126 122 727 0 c661 0 727 -1 733 -16 4
-11 -7 -29 -33 -53 -21 -21 -201 -187 -399 -371 -198 -184 -430 -399 -515
-479 -230 -216 -264 -248 -520 -486 -129 -121 -258 -241 -287 -268 -29 -27
-61 -56 -73 -64 -31 -22 -53 -71 -46 -106 3 -16 18 -44 33 -62 16 -18 67 -81
114 -141 47 -60 182 -230 300 -379 348 -437 563 -707 728 -915 211 -266 428
-538 609 -765 84 -104 152 -198 152 -207 0 -17 -41 -18 -729 -18 l-728 0 -134
171 c-74 95 -161 207 -194 249 -33 43 -145 187 -250 321 -104 133 -208 265
-229 293 -22 28 -100 129 -175 224 -75 96 -145 186 -156 201 -11 15 -55 70
-98 124 -78 98 -103 115 -151 103 -28 -7 -346 -292 -363 -327 -10 -18 -13
-182 -13 -691 l0 -668 -610 0 -610 0 0 2163 c0 1190 3 2167 7 2170 3 4 271 7
594 7 521 0 589 -2 603 -16z m6191 1 c770 -5 1174 -11 1183 -17 9 -8 12 -104
10 -442 l-3 -431 -1173 -5 -1174 -5 -19 -24 c-18 -22 -19 -43 -19 -341 0 -298
1 -319 19 -341 23 -29 -40 -27 1251 -37 l915 -7 3 -432 2 -433 -1057 0 c-1020
0 -1059 -1 -1089 -19 -19 -12 -33 -30 -37 -47 -3 -16 -3 -198 -1 -404 4 -382
6 -409 43 -427 9 -4 558 -10 1221 -13 l1205 -5 3 -442 2 -443 -297 0 c-164 0
-993 -3 -1843 -7 -1455 -6 -1546 -5 -1563 11 -16 16 -17 136 -17 2004 0 1093
-3 2055 -6 2137 -6 126 -4 152 8 162 24 21 322 21 2433 8z m3184 -40 c3 -4 11
-749 16 -1656 l10 -1648 23 -23 23 -23 1117 -5 c614 -3 1118 -6 1120 -8 1 -1
1 -210 0 -464 l-3 -463 -1751 -3 -1752 -2 -6 22 c-3 13 -6 840 -6 1838 0 998
-3 1951 -6 2117 -4 166 -4 309 0 319 6 16 46 16 607 11 331 -3 604 -9 608 -12z"/>
</g>
</svg>
